14
NC(=O)n1ccnc1O
N          2.19098       -1.50633        0.38006
C          2.05067       -0.16704        0.17144
O          1.30383        0.34367       -0.64949
N          2.85678        0.62952        0.99861
C          2.90326        2.01477        0.98778
C          3.81632        2.37830        1.94825
N          4.34459        1.27425        2.56134
C          3.75782        0.26122        1.97816
O          4.04041       -0.98011        2.33453
H          1.64176       -2.14412       -0.17932
H          2.82569       -1.88854        1.07548
H          2.28945        2.58803        0.30640
H          4.11936        3.37951        2.22856
H          4.70271       -0.82443        3.03589
